<?xml version="1.0" encoding="UTF-8" standalone="no"?>
<svg width="40px" height="40px" viewBox="0 0 40 40" version="1.1" xmlns="http://www.w3.org/2000/svg" xmlns:xlink="http://www.w3.org/1999/xlink">
    <!-- Generator: Sketch 45 (43475) - http://www.bohemiancoding.com/sketch -->
    <g id="Page-1" stroke="none" stroke-width="1" fill="none" fill-rule="evenodd">
        <g id="fb_red">
            <path d="M19.3334,27 L19.3334,20 L17.0004,20 L17.0004,17.667 L19.3334,17.667 L19.3334,15.333 C19.3334,13.112 21.6664,13 21.6664,13 L24.0004,13 L24.0004,15.333 L22.8334,15.333 C22.8334,15.333 21.6664,15.33 21.6664,16.5 L21.6664,17.667 L24.0004,17.667 L24.0004,20 L21.6664,20 L21.6664,27 L19.3334,27 Z" id="Fill-1" fill="#FFFFFF"></path>
        </g>
    </g>
</svg>